simulation/qsim/ALU3bit.msim.vcd
$comment
	File created using the following command:
		vcd file ALU3bit.msim.vcd -direction
$end
$date
	Tue Oct 07 19:33:07 2025
$end
$version
	ModelSim Version 10.5b
$end
$timescale
	1ps
$end

$scope module ALU3bit_vlg_vec_tst $end
$var reg 3 ! ain [2:0] $end
$var reg 3 " bin [2:0] $end
$var reg 2 # fun_sel [1:0] $end
$var wire 1 $ HEX0 [6] $end
$var wire 1 % HEX0 [5] $end
$var wire 1 & HEX0 [4] $end
$var wire 1 ' HEX0 [3] $end
$var wire 1 ( HEX0 [2] $end
$var wire 1 ) HEX0 [1] $end
$var wire 1 * HEX0 [0] $end
$var wire 1 + out [2] $end
$var wire 1 , out [1] $end
$var wire 1 - out [0] $end

$scope module i1 $end
$var wire 1 . gnd $end
$var wire 1 / vcc $end
$var wire 1 0 unknown $end
$var tri1 1 1 devclrn $end
$var tri1 1 2 devpor $end
$var tri1 1 3 devoe $end
$var wire 1 4 ~QUARTUS_CREATED_GND~I_combout $end
$var wire 1 5 bin[0]~input_o $end
$var wire 1 6 fun_sel[0]~input_o $end
$var wire 1 7 fun_sel[1]~input_o $end
$var wire 1 8 ain[0]~input_o $end
$var wire 1 9 Mux2~0_combout $end
$var wire 1 : ain[1]~input_o $end
$var wire 1 ; bin[1]~input_o $end
$var wire 1 < Mux1~0_combout $end
$var wire 1 = bin[2]~input_o $end
$var wire 1 > ain[2]~input_o $end
$var wire 1 ? subtractor|rca_sub|fa2|Add1~0_combout $end
$var wire 1 @ adder|fa2|Add1~0_combout $end
$var wire 1 A Mux0~0_combout $end
$var wire 1 B display0|WideOr6~0_combout $end
$var wire 1 C display0|WideOr5~0_combout $end
$var wire 1 D display0|Decoder0~0_combout $end
$var wire 1 E display0|WideOr3~0_combout $end
$var wire 1 F display0|WideOr2~0_combout $end
$var wire 1 G display0|WideOr1~0_combout $end
$var wire 1 H display0|WideOr0~0_combout $end
$upscope $end
$upscope $end
$enddefinitions $end
#0
$dumpvars
b0 !
b0 "
b0 #
0*
0)
0(
0'
0&
0%
1$
0-
0,
0+
0.
1/
x0
11
12
13
04
05
06
07
08
09
0:
0;
0<
0=
0>
0?
0@
0A
0B
0C
0D
0E
0F
0G
1H
$end
#10000
b1 !
b1 "
b1 #
16
15
18
#20000
b11 !
b11 "
b11 #
b10 !
b10 #
06
17
1;
08
1:
1@
1?
19
1-
1G
1F
1E
1B
1*
1'
1&
1%
#30000
b10 "
b11 !
b11 #
16
18
05
0?
1<
09
1A
1+
0-
1,
0H
0G
0F
0E
1C
0B
0*
1)
0'
0&
0%
0$
#40000
b111 !
b110 "
b101 !
b1 #
b100 !
b0 #
06
07
1=
08
0:
1>
0@
1?
0A
0+
1G
1D
0C
0)
1(
1%
#50000
b111 "
b101 !
b1 #
16
18
15
1@
1A
1+
0G
0D
1C
1)
0(
0%
#60000
b101 "
b111 !
b11 #
b110 !
b10 #
06
17
08
1:
0;
0@
0?
0A
19
1-
0+
1G
1F
0C
0)
1&
1%
#70000
b100 "
b111 !
b11 #
16
18
05
09
1A
1+
0-
0G
0F
1C
1)
0&
0%
#80000
b11 !
b0 "
b1 !
b1 #
b0 !
b0 #
06
07
0=
08
0:
0>
0A
0<
0,
0+
1H
0C
0)
1$
#90000
b1 "
b1 !
b1 #
16
18
15
#100000
b11 "
b11 !
b11 #
b10 !
b10 #
06
17
08
1:
1;
1@
1?
19
1-
1G
1F
1E
1B
1*
1'
1&
1%
#110000
b10 "
b11 !
b11 #
16
18
05
0?
1<
09
1A
1+
0-
1,
0H
0G
0F
0E
1C
0B
0*
1)
0'
0&
0%
0$
#120000
b111 !
b110 "
b101 !
b1 #
b100 !
b0 #
06
07
1=
08
0:
1>
0@
1?
0A
0+
1G
1D
0C
0)
1(
1%
#130000
b111 "
b101 !
b1 #
16
18
15
1@
1A
1+
0G
0D
1C
1)
0(
0%
#140000
b101 "
b111 !
b11 #
b110 !
b10 #
06
17
08
1:
0;
0@
0?
0A
19
1-
0+
1G
1F
0C
0)
1&
1%
#150000
b100 "
b111 !
b11 #
16
18
05
09
1A
1+
0-
0G
0F
1C
1)
0&
0%
#160000
b11 !
b0 "
b1 !
b1 #
b0 !
b0 #
06
07
0=
08
0:
0>
0A
0<
0,
0+
1H
0C
0)
1$
#170000
b1 "
b1 !
b1 #
16
18
15
#180000
b11 "
b11 !
b11 #
b10 !
b10 #
06
17
08
1:
1;
1@
1?
19
1-
1G
1F
1E
1B
1*
1'
1&
1%
#190000
b10 "
b11 !
b11 #
16
18
05
0?
1<
09
1A
1+
0-
1,
0H
0G
0F
0E
1C
0B
0*
1)
0'
0&
0%
0$
#200000
b111 !
b110 "
b101 !
b1 #
b100 !
b0 #
06
07
1=
08
0:
1>
0@
1?
0A
0+
1G
1D
0C
0)
1(
1%
#210000
b111 "
b101 !
b1 #
16
18
15
1@
1A
1+
0G
0D
1C
1)
0(
0%
#220000
b101 "
b111 !
b11 #
b110 !
b10 #
06
17
08
1:
0;
0@
0?
0A
19
1-
0+
1G
1F
0C
0)
1&
1%
#230000
b100 "
b111 !
b11 #
16
18
05
09
1A
1+
0-
0G
0F
1C
1)
0&
0%
#240000
b11 !
b0 "
b1 !
b1 #
b0 !
b0 #
06
07
0=
08
0:
0>
0A
0<
0,
0+
1H
0C
0)
1$
#250000
b1 "
b1 !
b1 #
16
18
15
#260000
b11 "
b11 !
b11 #
b10 !
b10 #
06
17
08
1:
1;
1@
1?
19
1-
1G
1F
1E
1B
1*
1'
1&
1%
#270000
b10 "
b11 !
b11 #
16
18
05
0?
1<
09
1A
1+
0-
1,
0H
0G
0F
0E
1C
0B
0*
1)
0'
0&
0%
0$
#280000
b111 !
b110 "
b101 !
b1 #
b100 !
b0 #
06
07
1=
08
0:
1>
0@
1?
0A
0+
1G
1D
0C
0)
1(
1%
#290000
b111 "
b101 !
b1 #
16
18
15
1@
1A
1+
0G
0D
1C
1)
0(
0%
#300000
b101 "
b111 !
b11 #
b110 !
b10 #
06
17
08
1:
0;
0@
0?
0A
19
1-
0+
1G
1F
0C
0)
1&
1%
#310000
b100 "
b111 !
b11 #
16
18
05
09
1A
1+
0-
0G
0F
1C
1)
0&
0%
#320000
b11 !
b0 "
b1 !
b1 #
b0 !
b0 #
06
07
0=
08
0:
0>
0A
0<
0,
0+
1H
0C
0)
1$
#330000
b1 "
b1 !
b1 #
16
18
15
#340000
b11 "
b11 !
b11 #
b10 !
b10 #
06
17
08
1:
1;
1@
1?
19
1-
1G
1F
1E
1B
1*
1'
1&
1%
#350000
b10 "
b11 !
b11 #
16
18
05
0?
1<
09
1A
1+
0-
1,
0H
0G
0F
0E
1C
0B
0*
1)
0'
0&
0%
0$
#360000
b111 !
b110 "
b101 !
b1 #
b100 !
b0 #
06
07
1=
08
0:
1>
0@
1?
0A
0+
1G
1D
0C
0)
1(
1%
#370000
b111 "
b101 !
b1 #
16
18
15
1@
1A
1+
0G
0D
1C
1)
0(
0%
#380000
b101 "
b111 !
b11 #
b110 !
b10 #
06
17
08
1:
0;
0@
0?
0A
19
1-
0+
1G
1F
0C
0)
1&
1%
#390000
b100 "
b111 !
b11 #
16
18
05
09
1A
1+
0-
0G
0F
1C
1)
0&
0%
